project-1-checkpoint-3
…
Googled on how to use map if thee were requests than an API would no accept, reached: https://stackoverflow.com/questions/50486527/how-to-use-map-with-possibly

safe_mining <- possibly(mining2, otherwise = tibble())

result <- map(test_list2, safe_mining) |>
  bind_rows(.id = "id")

result 

# A tibble: 66 × 43
   id    document.id array.index     gdp sex_ratio surface_area
   <chr>       <int>       <int>   <dbl>     <dbl>        <dbl>
 1 1               1           1  518475      95.3      2780400
 2 2               1           1 1453871      99.2      7692060
 3 3               1           1  269628     102.        147570
 4 4               1           1   10412      99.8       114763
 5 5               1           1    2658     113.         38394
 6 6               1           1 1868613      96.6      8515767
 7 7               1           1   66199      94.4       111002
 8 8               1           1   16200      99.9       272967
 9 9               1           1   38694     100.        475650
10 10              1           1 1712562      98.5      9984670
# ℹ 56 more rows
# ℹ 37 more variables: life_expectancy_male <dbl>, unemployment <dbl>,
#   imports <dbl>, homicide_rate <dbl>, iso2 <chr>, employment_services <dbl>,
#   employment_industry <dbl>, urban_population_growth <dbl>,
#   secondary_school_enrollment_female <dbl>, employment_agriculture <dbl>,
#   capital <chr>, co2_emissions <dbl>, forested_area <dbl>, tourists <dbl>,
#   exports <dbl>, life_expectancy_female <dbl>, …
…
Vietnam
2020
8,809
69
2.54
0.81
0.73
96,648,704

This dataset was obtained through the Global Footprint Network API by pulling country level data for 2019 and 2020 from the National Footprint and Biocapacity Accounts. The API returns environmental and development indicators for countries and territories, including metrics such as Total Biocapacity and Total Ecological Footprint. After retrieving the data, I combined the yearly responses, reshaped them into a country year format, and matched them to the plastics dataset using country and year. This allowed me to incorporate environmental context into the original dataset and compare plastic collection outcomes with a nations ecological state.

# large joined metadataset
final_merged

# A tibble: 13,380 × 76
   country   year parent_company empty  hdpe  ldpe     o   pet    pp    ps   pvc
   <chr>    <dbl> <chr>          <dbl> <dbl> <dbl> <dbl> <dbl> <dbl> <dbl> <dbl>
 1 Argenti…  2019 Grand Total        0   215    55   607  1376   281   116    18
 2 Argenti…  2019 Unbranded          0   155    50   532   848   122   114    17
 3 Argenti…  2019 The Coca-Cola…     0     0     0     0   222    35     0     0
 4 Argenti…  2019 Secco              0     0     0     0    39     4     0     0
 5 Argenti…  2019 Doble Cola         0     0     0     0    38     0     0     0
 6 Argenti…  2019 Pritty             0     0     0     0    22     7     0     0
 7 Argenti…  2019 PepsiCo            0     0     0     0    21     6     0     0
 8 Argenti…  2019 Casoni             0     0     0     0    26     0     0     0
 9 Argenti…  2019 Villa Del Sur…     0     0     0     0    19     1     0     0
10 Argenti…  2019 Manaos             0     0     0     0    14     4     0     0
# ℹ 13,370 more rows
# ℹ 65 more variables: grand_total <dbl>, total <dbl>, num_events <dbl>,
#   volunteers <dbl>, id <chr>, document.id <int>, array.index <int>,
#   gdp <dbl>, sex_ratio <dbl>, surface_area <dbl>, life_expectancy_male <dbl>,
#   unemployment <dbl>, imports <dbl>, homicide_rate <dbl>, iso2 <chr>,
#   employment_services <dbl>, employment_industry <dbl>,
#   urban_population_growth <dbl>, secondary_school_enrollment_female <dbl>, …
